<svg width="186" height="26" viewBox="0 0 186 26" fill="none" xmlns="http://www.w3.org/2000/svg">
<path d="M12.408 -0.0002428H-0.00129577V12.4091C-0.0810984 19.2721 5.14597 25.0578 12.2484 25.2573C19.6701 25.4568 25.8149 19.2322 25.2563 11.7706C24.6976 4.78792 19.1115 -0.0401441 12.408 -0.0002428ZM18.473 17.9953C16.9169 19.6711 14.7223 20.6287 12.4479 20.5888C8.05876 20.4292 4.58735 16.8381 4.74696 12.4889V4.70811L12.4878 4.66821C16.5977 4.66821 20.0691 7.70071 20.508 11.6908C20.7474 14.0051 20.0292 16.2795 18.473 17.9953Z" fill="#020203"/>
<path d="M35.8712 7.38184C33.4372 7.38184 31.4023 8.25966 29.8062 9.97542C28.2102 11.6912 27.3723 13.8458 27.3723 16.3995C27.3723 18.9931 28.2102 21.1079 29.886 22.7837C31.5619 24.4596 33.6767 25.2975 36.3101 25.2975C39.8214 25.2975 42.2554 23.7414 43.6919 20.5892L39.981 19.5118C39.2229 20.9084 38.0259 21.6266 36.35 21.6266C35.1929 21.6266 34.2353 21.2675 33.4372 20.5094C32.6392 19.7512 32.1205 18.7936 31.921 17.5567H44.3702V16.4793C44.3702 13.6463 43.5722 11.4119 41.9761 9.81582C40.3402 8.17986 38.3052 7.38184 35.8712 7.38184ZM31.921 14.5242C32.1604 13.2872 32.6392 12.3695 33.3175 11.7311C33.9959 11.0927 34.8737 10.7734 35.951 10.7734C36.9885 10.7734 37.8663 11.0927 38.5446 11.7311C39.2628 12.3695 39.6219 13.2872 39.7017 14.5242H31.921Z" fill="#020203"/>
<path d="M57.4977 15.4819C56.8194 15.2026 56.1012 14.9632 55.3431 14.7238C54.545 14.5243 53.8268 14.3647 53.1884 14.245C52.5101 14.1253 51.9914 13.9258 51.5125 13.6465C51.0736 13.3672 50.8342 12.9283 50.8342 12.4494C50.8342 11.9706 51.0337 11.5317 51.4327 11.2524C51.8317 10.9332 52.3505 10.7736 52.9889 10.7736C53.6672 10.7736 54.2657 10.9332 54.7445 11.2923C55.2234 11.6514 55.5027 12.0903 55.6224 12.609L59.7322 11.7312C59.3731 10.4544 58.5751 9.41694 57.3381 8.61891C56.1012 7.82089 54.6248 7.42188 52.8692 7.42188C50.9539 7.42188 49.3978 7.90069 48.2007 8.89822C47.0037 9.89576 46.4052 11.1726 46.4052 12.7687C46.4052 14.0455 46.7244 15.043 47.3229 15.8012C47.9613 16.5593 48.6796 17.078 49.5973 17.3174C50.4751 17.5568 51.3529 17.7962 52.2308 17.9159C53.1086 18.0755 53.8667 18.3149 54.4652 18.5942C55.1037 18.9135 55.383 19.3524 55.383 19.9509C55.383 20.5893 55.1835 21.0681 54.7445 21.4671C54.3056 21.8263 53.747 22.0258 52.9889 22.0258C52.2308 22.0258 51.5125 21.8263 50.9539 21.4272C50.3554 21.0282 49.9963 20.5095 49.7968 19.8711L45.687 20.6292C46.1658 22.1056 47.0037 23.2627 48.2805 24.0607C49.5574 24.8587 51.0736 25.2578 52.8692 25.2578C54.9441 25.2578 56.6199 24.739 57.8968 23.7016C59.1736 22.6642 59.812 21.3075 59.812 19.5918C59.812 18.5144 59.5726 17.6366 59.1337 16.9184C58.7347 16.28 58.1761 15.8012 57.4977 15.4819Z" fill="#020203"/>
<path d="M70.8248 7.38184C68.3509 7.38184 66.2361 8.17986 64.5203 9.81582C62.8046 11.4119 61.9268 13.6064 61.9268 16.3596C61.9268 19.0729 62.8046 21.2675 64.5203 22.8635C66.2361 24.4596 68.3509 25.2975 70.8248 25.2975C73.3385 25.2975 75.4533 24.4995 77.1691 22.8635C78.8848 21.2675 79.7228 19.0729 79.7228 16.3596C79.7228 13.6064 78.8848 11.4119 77.1691 9.81582C75.4533 8.17986 73.3385 7.38184 70.8248 7.38184ZM74.0169 19.9906C73.2188 20.9084 72.1415 21.3872 70.8248 21.3872C69.5479 21.3872 68.4706 20.9084 67.6327 19.9906C66.7947 19.033 66.3957 17.836 66.3957 16.3596C66.3957 14.8434 66.7947 13.6064 67.6327 12.6887C68.4706 11.771 69.5479 11.3321 70.8248 11.3321C72.1415 11.3321 73.2188 11.771 74.0169 12.6887C74.8149 13.6064 75.2139 14.8434 75.2139 16.3596C75.2538 17.836 74.8548 19.033 74.0169 19.9906Z" fill="#020203"/>
<path d="M86.1868 0.0400391H81.7578V25.2976H86.1868V0.0400391Z" fill="#020203"/>
<path d="M96.6809 7.38184C94.2469 7.38184 92.2119 8.25966 90.6159 9.97542C89.0198 11.6912 88.1819 13.8458 88.1819 16.3995C88.1819 18.9931 89.0198 21.1079 90.6957 22.7837C92.3715 24.4596 94.4863 25.2975 97.1198 25.2975C100.631 25.2975 103.065 23.7414 104.501 20.5892L100.791 19.5118C100.032 20.9084 98.8355 21.6266 97.1597 21.6266C96.0026 21.6266 95.0449 21.2675 94.2469 20.5094C93.4489 19.7512 92.9301 18.7936 92.7306 17.5567H105.18V16.4793C105.18 13.6463 104.382 11.4119 102.786 9.81582C101.15 8.17986 99.1548 7.38184 96.6809 7.38184ZM92.7306 14.5242C92.97 13.2872 93.4489 12.3695 94.1272 11.7311C94.8055 11.0927 95.6833 10.7734 96.7607 10.7734C97.7981 10.7734 98.6759 11.0927 99.3543 11.7311C100.072 12.3695 100.431 13.2872 100.511 14.5242H92.7306Z" fill="#020203"/>
<path d="M116.592 7.38184C115.474 7.38184 114.477 7.62124 113.559 8.13996C112.641 8.61878 111.923 9.2572 111.444 10.0552H111.364V7.94045H107.255V25.3374H111.684V15.0429C111.684 13.9257 112.043 13.0478 112.721 12.3296C113.399 11.6114 114.237 11.2523 115.235 11.2523C117.11 11.2523 118.068 12.4094 118.068 14.7636V25.2576H122.497V13.9656C122.497 11.8907 121.978 10.2547 120.941 9.09759C119.863 7.94045 118.427 7.38184 116.592 7.38184Z" fill="#020203"/>
<path d="M137.5 10.0152C137.061 9.25706 136.422 8.61864 135.545 8.09992C134.667 7.62111 133.629 7.3418 132.512 7.3418C130.238 7.3418 128.362 8.17973 126.846 9.85558C125.33 11.5314 124.572 13.6861 124.572 16.3196C124.572 18.9132 125.33 21.0679 126.806 22.7437C128.283 24.4196 130.158 25.2575 132.392 25.2575C133.51 25.2575 134.547 25.0181 135.505 24.5393C136.462 24.0605 137.22 23.3422 137.739 22.3447H137.859V25.2974H141.969V7.90042H137.58V10.0152H137.5ZM136.462 19.9506C135.704 20.9082 134.667 21.3472 133.35 21.3472C132.073 21.3472 131.036 20.8683 130.238 19.9107C129.44 18.9531 129.041 17.756 129.041 16.2797C129.041 14.8033 129.44 13.6063 130.198 12.6487C130.956 11.691 132.033 11.2521 133.35 11.2521C134.667 11.2521 135.704 11.7309 136.462 12.6487C137.22 13.6063 137.619 14.8033 137.619 16.2797C137.58 17.7959 137.22 19.0329 136.462 19.9506Z" fill="#020203"/>
<path d="M151.346 2.71338H146.877V7.90055H144.004V11.6912H146.877V25.2975H151.346V11.6912H155.655V7.90055H151.346V2.71338Z" fill="#020203"/>
<path d="M165.032 7.38184C162.558 7.38184 160.443 8.17986 158.727 9.81582C157.011 11.4119 156.134 13.6064 156.134 16.3596C156.134 19.0729 157.011 21.2675 158.727 22.8635C160.443 24.4596 162.558 25.2975 165.032 25.2975C167.545 25.2975 169.66 24.4995 171.376 22.8635C173.092 21.2675 173.93 19.0729 173.93 16.3596C173.93 13.6064 173.092 11.4119 171.376 9.81582C169.66 8.17986 167.545 7.38184 165.032 7.38184ZM168.224 19.9906C167.426 20.9084 166.348 21.3872 165.032 21.3872C163.755 21.3872 162.678 20.9084 161.84 19.9906C161.002 19.033 160.603 17.836 160.603 16.3596C160.603 14.8434 161.002 13.6064 161.84 12.6887C162.678 11.771 163.755 11.3321 165.032 11.3321C166.348 11.3321 167.426 11.771 168.224 12.6887C169.022 13.6064 169.421 14.8434 169.421 16.3596C169.421 17.836 169.022 19.033 168.224 19.9906Z" fill="#020203"/>
<path d="M184.623 7.62109C183.626 7.62109 182.748 7.8605 181.95 8.37922C181.152 8.89793 180.553 9.65606 180.114 10.6137H180.035V7.9004H175.965V25.2974H180.394V17.1575C180.394 13.6462 181.83 11.8905 184.663 11.8905C185.142 11.8905 185.581 11.9703 185.9 12.09V7.8605C185.661 7.7009 185.222 7.62109 184.623 7.62109Z" fill="#020203"/>
</svg>
