<svg width="78" height="78" viewBox="0 0 78 78" fill="none" xmlns="http://www.w3.org/2000/svg">
<path d="M30.5336 22.0127H28.5546V34.492H24.1802V39.9895H28.5546V43.0132H24.1802V48.5107H28.5546V56.7569H37.6804V48.5107H50.4347V43.0132H37.6804V39.9895H50.4347V34.492H37.6804V29.3244H54.118V22.0127H37.6804H30.5336Z" fill="black"/>
<path d="M39 0C17.4954 0 0 17.4952 0 38.9999C0 60.5046 17.4954 78 39 78C60.5047 78 78 60.5046 78 38.9999C78 17.4952 60.5047 0 39 0ZM39 72.0902C20.754 72.0902 5.90984 57.2459 5.90984 38.9999C5.90984 20.7541 20.754 5.90983 39 5.90983C57.246 5.90983 72.0902 20.7541 72.0902 38.9999C72.0902 57.2459 57.246 72.0902 39 72.0902Z" fill="black"/>
</svg>
