<svg width="173" height="31" viewBox="0 0 173 31" fill="none" xmlns="http://www.w3.org/2000/svg">
<g clip-path="url(#clip0_270_7691)">
<path d="M96.1525 30.2268H64.3716C56.317 30.1393 49.8601 23.5292 49.9258 15.4746V14.7523C49.8601 6.69762 56.317 0.0875506 64.3716 0H96.1744C104.229 0.0875506 110.686 6.69762 110.62 14.7523V15.4746C110.686 23.5292 104.229 30.1393 96.1525 30.2268ZM64.3716 4.04921C58.5057 4.11488 53.7999 8.90827 53.8656 14.7742V15.4965C53.7999 21.3623 58.5057 26.1557 64.3716 26.2214H96.1744C102.04 26.1557 106.746 21.3623 106.68 15.4965V14.7742C106.746 8.90827 102.04 4.11488 96.1744 4.04921H64.3716Z" fill="black"/>
<path d="M140.694 0.941233C140.3 0.328379 139.599 -0.0437114 138.855 6.39383e-05H138.79C137.892 -0.0437114 137.082 0.50348 136.776 1.33521L126.992 23.5512L126.839 23.9014C126.554 24.6018 126.357 24.7769 126.292 24.7988C126.226 24.755 126.029 24.5799 125.744 23.9014L115.807 1.3571C115.501 0.525368 114.691 -0.0218237 113.794 0.0219516H113.728C112.984 6.39388e-05 112.284 0.350266 111.89 0.985008C111.474 1.59786 111.408 2.38582 111.715 3.04245L122.571 27.7755C123.424 29.8329 125.788 30.796 127.824 29.9424C128.809 29.5265 129.575 28.7604 129.991 27.7755L140.847 3.04245C141.197 2.34204 141.132 1.55409 140.694 0.941233Z" fill="black"/>
<path d="M169.651 23.6819C169.498 22.9815 168.994 22.3905 168.338 22.106C167.484 21.6682 166.434 21.8652 165.799 22.5875C164.311 24.2072 162.363 25.3016 160.218 25.7175C157.941 26.199 155.577 25.9363 153.476 24.9952C150.346 23.6162 148.157 20.9897 146.976 17.225C149.536 17.2469 153.629 17.2469 159.189 17.2469C164.026 17.2469 167.922 17.2469 170.899 17.2688C171.468 17.2688 172.015 17.0499 172.431 16.6341C172.847 16.2182 173.066 15.6491 173.022 15.0582C172.912 12.1471 171.971 9.34549 170.33 6.93785C168.644 4.44266 166.28 2.47277 163.523 1.26895C159.824 -0.438289 155.577 -0.591502 151.747 0.896858C147.96 2.25389 144.94 5.14306 143.43 8.86396C141.81 12.5849 141.832 16.7873 143.452 20.5082C146.385 27.4904 153.783 31.452 161.224 30.0512C164.267 29.4821 167.046 27.9281 169.148 25.6518C169.629 25.1265 169.826 24.3823 169.651 23.6819ZM161.772 5.38383C164.748 6.69709 166.893 9.19228 168.163 12.8256H146.866C147.041 12.1252 147.26 11.4467 147.501 10.7682C148.573 8.14167 150.696 6.08423 153.367 5.12117C156.103 4.07057 159.123 4.15812 161.772 5.38383Z" fill="black"/>
<path d="M42.6591 3.56636C40.2733 1.18061 37.034 -0.13265 33.6633 -0.0669867C29.6578 -0.0669867 26.1339 1.74969 23.201 5.33926C20.268 1.74969 16.7222 -0.0669867 12.7168 -0.0669867C9.34608 -0.13265 6.10671 1.18061 3.72095 3.56636C1.31331 5.86457 -0.0437245 9.06016 5.0761e-05 12.409V28.1243C5.0761e-05 28.6934 0.240815 29.2625 0.65668 29.6564C1.07255 30.0723 1.61974 30.2912 2.2107 30.2912H2.29825C2.86733 30.2912 3.43641 30.0723 3.85228 29.6564C4.26814 29.2625 4.50891 28.6934 4.50891 28.1243V12.409C4.48702 10.264 5.36253 8.20654 6.91655 6.74007C10.1559 3.56636 15.3214 3.56636 18.5608 6.74007C20.1148 8.20654 20.9903 10.264 20.9684 12.409V28.1243C20.9684 28.6934 21.2092 29.2625 21.625 29.6564C22.0409 30.0723 22.61 30.2912 23.201 30.2912H23.2666C23.8357 30.2912 24.4048 30.0723 24.8206 29.6564C25.2365 29.2625 25.4773 28.6934 25.4773 28.1243V12.409C25.4554 10.264 26.3309 8.20654 27.8849 6.74007C31.1243 3.58825 36.2898 3.58825 39.551 6.74007C41.1051 8.20654 41.9806 10.264 41.9587 12.409V28.1243C41.9587 28.6934 42.1994 29.2625 42.6153 29.6564C43.0312 30.0723 43.5784 30.2912 44.1693 30.2912H44.235C44.826 30.3131 45.395 30.0723 45.8109 29.6564C46.2268 29.2625 46.4456 28.6934 46.4456 28.1243V12.409C46.4019 9.06016 45.0667 5.86457 42.6591 3.56636Z" fill="black"/>
<path d="M64.7218 7.20134C68.574 7.22323 71.8353 10.0249 72.4263 13.8333H74.6807C74.1116 8.3395 69.1869 4.33406 63.6712 4.92503C58.9654 5.42844 55.2445 9.12746 54.7629 13.8333H57.0174C57.6083 10.0467 60.8696 7.22323 64.7218 7.20134Z" fill="black"/>
<path d="M64.7218 23.0255C60.8696 23.0036 57.6083 20.202 57.0174 16.3936H54.7629C55.3539 21.8874 60.2786 25.8709 65.7943 25.2799C70.4783 24.7765 74.1773 21.0775 74.6807 16.3936H72.4263C71.8353 20.202 68.5522 23.0036 64.7218 23.0255Z" fill="#21F6E2"/>
</g>
<defs>
<clipPath id="clip0_270_7691">
<rect width="173" height="30.3363" fill="white"/>
</clipPath>
</defs>
</svg>
