{
  "collectionName": "components_shared_ogs",
  "info": {
    "displayName": "OG"
  },
  "options": {},
  "attributes": {
    "locale": {
      "type": "string",
      "default": "en_US"
    },
    "type": {
      "type": "string",
      "default": "website"
    },
    "title": {
      "type": "string",
      "default": "ND Group"
    },
    "description": {
      "type": "text",
      "default": "Established in 2008, nd Group is an international private equity and portfolio holding company based in Netherlands with presence in the U.K., Germany, UAE and the U.S."
    },
    "url": {
      "type": "string",
      "default": "https://nd.net/"
    },
    "name": {
      "type": "string",
      "default": "ND Group"
    },
    "image": {
      "allowedTypes": [
        "images"
      ],
      "type": "media",
      "multiple": false
    }
  }
}
