{
  "collectionName": "components_shared_paragraphs",
  "info": {
    "displayName": "Paragraph",
    "icon": "paragraph",
    "description": ""
  },
  "options": {},
  "attributes": {
    "text": {
      "type": "text",
      "required": true
    }
  }
}
