{
  "collectionName": "components_items_missions",
  "info": {
    "displayName": "Mission",
    "description": ""
  },
  "options": {},
  "attributes": {
    "image": {
      "type": "media",
      "multiple": false,
      "required": true,
      "allowedTypes": [
        "images"
      ]
    },
    "name": {
      "type": "string",
      "required": true
    },
    "description": {
      "type": "text",
      "required": false
    }
  }
}
