{
  "key": "plugin_content_manager_configuration_components::about.video",
  "value": {
    "uid": "about.video",
    "settings": {
      "bulkable": true,
      "filterable": true,
      "searchable": true,
      "pageSize": 10,
      "mainField": "video",
      "defaultSortBy": "video",
      "defaultSortOrder": "ASC"
    },
    "metadatas": {
      "id": {
        "edit": {},
        "list": {
          "label": "id",
          "searchable": false,
          "sortable": false
        }
      },
      "preview": {
        "edit": {
          "label": "Preview",
          "description": "",
          "placeholder": "",
          "visible": true,
          "editable": true
        },
        "list": {
          "label": "preview",
          "searchable": false,
          "sortable": false
        }
      },
      "video": {
        "edit": {
          "label": "Video",
          "description": "Vimeo video ID",
          "placeholder": "",
          "visible": true,
          "editable": true
        },
        "list": {
          "label": "video",
          "searchable": true,
          "sortable": true
        }
      }
    },
    "layouts": {
      "list": [
        "id",
        "preview",
        "video"
      ],
      "edit": [
        [
          {
            "name": "preview",
            "size": 12
          }
        ],
        [
          {
            "name": "video",
            "size": 12
          }
        ]
      ],
      "editRelations": []
    },
    "isComponent": true
  },
  "type": "object",
  "environment": null,
  "tag": null
}