{
  "key": "plugin_content_manager_configuration_content_types::api::post.post",
  "value": {
    "uid": "api::post.post",
    "settings": {
      "bulkable": true,
      "filterable": true,
      "searchable": true,
      "pageSize": 10,
      "mainField": "name",
      "defaultSortBy": "name",
      "defaultSortOrder": "ASC"
    },
    "metadatas": {
      "id": {
        "edit": {},
        "list": {
          "label": "id",
          "searchable": true,
          "sortable": true
        }
      },
      "name": {
        "edit": {
          "label": "Name",
          "description": "",
          "placeholder": "",
          "visible": true,
          "editable": true
        },
        "list": {
          "label": "name",
          "searchable": true,
          "sortable": true
        }
      },
      "short": {
        "edit": {
          "label": "Horizontal preview",
          "description": "",
          "placeholder": "",
          "visible": true,
          "editable": true
        },
        "list": {
          "label": "short",
          "searchable": false,
          "sortable": false
        }
      },
      "full": {
        "edit": {
          "label": "Vertical preview",
          "description": "",
          "placeholder": "",
          "visible": true,
          "editable": true
        },
        "list": {
          "label": "full",
          "searchable": false,
          "sortable": false
        }
      },
      "content": {
        "edit": {
          "label": "Content",
          "description": "",
          "placeholder": "",
          "visible": true,
          "editable": true
        },
        "list": {
          "label": "content",
          "searchable": false,
          "sortable": false
        }
      },
      "slug": {
        "edit": {
          "label": "Slug",
          "description": "",
          "placeholder": "",
          "visible": true,
          "editable": true
        },
        "list": {
          "label": "slug",
          "searchable": true,
          "sortable": true
        }
      },
      "seo": {
        "edit": {
          "label": "seo",
          "description": "",
          "placeholder": "",
          "visible": true,
          "editable": true
        },
        "list": {
          "label": "seo",
          "searchable": false,
          "sortable": false
        }
      },
      "header": {
        "edit": {
          "label": "Header",
          "description": "",
          "placeholder": "",
          "visible": true,
          "editable": true
        },
        "list": {
          "label": "header",
          "searchable": false,
          "sortable": false
        }
      },
      "date": {
        "edit": {
          "label": "Date",
          "description": "",
          "placeholder": "",
          "visible": true,
          "editable": true
        },
        "list": {
          "label": "date",
          "searchable": true,
          "sortable": true
        }
      },
      "createdAt": {
        "edit": {
          "label": "createdAt",
          "description": "",
          "placeholder": "",
          "visible": false,
          "editable": true
        },
        "list": {
          "label": "createdAt",
          "searchable": true,
          "sortable": true
        }
      },
      "updatedAt": {
        "edit": {
          "label": "updatedAt",
          "description": "",
          "placeholder": "",
          "visible": false,
          "editable": true
        },
        "list": {
          "label": "updatedAt",
          "searchable": true,
          "sortable": true
        }
      }
    },
    "layouts": {
      "edit": [
        [
          {
            "name": "name",
            "size": 12
          }
        ],
        [
          {
            "name": "slug",
            "size": 8
          },
          {
            "name": "date",
            "size": 4
          }
        ],
        [
          {
            "name": "short",
            "size": 4
          },
          {
            "name": "full",
            "size": 4
          },
          {
            "name": "header",
            "size": 4
          }
        ],
        [
          {
            "name": "content",
            "size": 12
          }
        ],
        [
          {
            "name": "seo",
            "size": 12
          }
        ]
      ],
      "editRelations": [],
      "list": [
        "name",
        "short",
        "full",
        "createdAt"
      ]
    }
  },
  "type": "object",
  "environment": null,
  "tag": null
}