{
  "kind": "singleType",
  "collectionName": "cases",
  "info": {
    "singularName": "case",
    "pluralName": "cases",
    "displayName": "[Index] Case",
    "description": ""
  },
  "options": {
    "draftAndPublish": false
  },
  "pluginOptions": {},
  "attributes": {
    "title": {
      "type": "string",
      "required": true
    },
    "legend": {
      "type": "string",
      "required": true
    },
    "link": {
      "displayName": "Link",
      "type": "component",
      "repeatable": false,
      "component": "shared.link"
    }
  }
}
