<svg width="70" height="70" viewBox="0 0 70 70" fill="none" xmlns="http://www.w3.org/2000/svg">
    <path d="M26.5931 56.2107H27.8594V57.5826C27.5077 57.6529 27.1559 57.6881 26.769 57.6881C26.0654 57.6881 25.5378 57.5122 25.186 57.1956C24.8343 56.8791 24.6584 56.3866 24.6584 55.7534C24.6584 55.1554 24.8343 54.663 25.2212 54.3112C25.6082 53.9595 26.1358 53.7836 26.8041 53.7836C27.2614 53.7836 27.7539 53.8891 28.2463 54.065L28.3167 54.1002L28.6333 53.467L28.5629 53.4318C28.0353 53.2208 27.4373 53.1504 26.8393 53.1504C26.2413 53.1504 25.6785 53.2559 25.2564 53.467C24.7991 53.678 24.4474 53.9946 24.2011 54.3816C23.9549 54.7685 23.8494 55.261 23.8494 55.7886C23.8494 56.5976 24.0956 57.266 24.5881 57.7233C25.0805 58.1806 25.784 58.4268 26.6634 58.4268C27.0855 58.4268 27.4373 58.3916 27.7539 58.3564C28.0705 58.3213 28.3871 58.2509 28.6685 58.1806H28.7388V55.6479H26.6634V56.2107H26.5931Z" fill="#E8E8E8"/>
    <path d="M36.4423 54.663C36.4423 54.1705 36.2664 53.7836 35.9147 53.5373C35.5629 53.2911 35.0353 53.1856 34.3318 53.1856H32.6785V58.2861H33.4876V56.2459H34.5428L35.9147 58.2861H36.8996L35.3167 56.0348C36.0554 55.7886 36.4423 55.3313 36.4423 54.663ZM35.5981 54.6981C35.5981 54.9796 35.4926 55.2258 35.3167 55.3665C35.1056 55.5072 34.7891 55.5775 34.3318 55.5775H33.4876V53.8539H34.2614C34.7187 53.8539 35.0705 53.9243 35.2815 54.065C35.4926 54.1705 35.5981 54.3816 35.5981 54.6981Z" fill="#E8E8E8"/>
    <path d="M42.774 53.1152C41.9298 53.1152 41.2614 53.3615 40.769 53.8188C40.3117 54.276 40.0654 54.9092 40.0654 55.7534C40.0654 56.5976 40.3117 57.2308 40.769 57.6881C41.2262 58.1454 41.8946 58.3916 42.774 58.3916C43.6182 58.3916 44.2865 58.1454 44.7438 57.6881C45.2011 57.2308 45.4473 56.5625 45.4473 55.7534C45.4473 54.9444 45.2011 54.3112 44.7438 53.8188C44.2865 53.3615 43.6182 53.1152 42.774 53.1152ZM42.774 57.6881C42.176 57.6881 41.7187 57.5122 41.4021 57.1956C41.0855 56.8791 40.9448 56.3866 40.9448 55.7182C40.9448 55.0851 41.0855 54.5926 41.4021 54.276C41.7187 53.9595 42.176 53.7836 42.774 53.7836C43.372 53.7836 43.8293 53.9595 44.1458 54.276C44.4624 54.5926 44.6031 55.0851 44.6031 55.7182C44.6031 56.3514 44.4624 56.8439 44.1458 57.1956C43.8293 57.5122 43.372 57.6881 42.774 57.6881Z" fill="#E8E8E8"/>
    <path d="M52.975 56.4921C52.975 56.8791 52.8695 57.1956 52.6232 57.3715C52.377 57.5826 52.0252 57.6881 51.568 57.6881C51.0755 57.6881 50.7237 57.5826 50.4775 57.3715C50.2313 57.1605 50.1257 56.8791 50.1257 56.4921V53.1856H49.3167V56.4569C49.3167 57.0549 49.5278 57.5122 49.9147 57.864C50.3016 58.2157 50.8644 58.3564 51.568 58.3564C52.2715 58.3564 52.8343 58.1806 53.2212 57.864C53.6433 57.5122 53.8192 57.0549 53.8192 56.4921V53.2208H53.0102V56.4921H52.975Z" fill="#E8E8E8"/>
    <path d="M59.4473 53.1856H57.8996V58.2861H58.7087V56.3514H59.3066C60.0453 56.3514 60.6433 56.2107 61.0303 55.9293C61.4524 55.6479 61.6634 55.2258 61.6634 54.6981C61.6634 53.7132 60.9247 53.1856 59.4473 53.1856ZM60.8192 54.7333C60.8192 55.0851 60.7137 55.2961 60.4674 55.472C60.2212 55.6127 59.7991 55.7182 59.2363 55.7182H58.7087V53.8539H59.377C59.8695 53.8539 60.2564 53.9243 60.4674 54.065C60.7137 54.2057 60.8192 54.4167 60.8192 54.7333Z" fill="#E8E8E8"/>
    <path d="M61.628 50.407V29.7939H55.4722V37.9196H55.437C54.3817 36.5829 52.6229 35.9497 50.1254 35.9497C46.6782 35.9497 43.4772 37.6733 42.7033 41.5075C41.8943 37.6733 38.6933 35.9497 35.2812 35.9497C32.7837 35.9497 31.0249 36.5829 29.9697 37.9196H29.9345V36.407H23.9546V50.407H29.9345V43.4422C29.9345 41.4723 30.9546 40.2412 33.3114 40.2412C35.5275 40.2412 36.6531 41.6482 36.6531 43.4422V50.407H42.9496V46.1859C44.0048 49.4924 46.9948 50.9698 50.1958 50.9698C52.9043 50.9698 54.628 50.2663 55.7184 48.8944H55.7536V50.3718H61.628V50.407ZM52.1305 46.6432C49.7385 46.6432 48.7536 45.3065 48.7536 43.4422C48.7536 41.6482 49.8792 40.2412 52.0953 40.2412C54.4873 40.2412 55.4722 41.4372 55.4722 43.4422C55.4722 45.4472 54.4873 46.6432 52.1305 46.6432Z" fill="#E8E8E8"/>
    <path d="M69.8944 69.8241H0.105469V0.0351562H69.8944V69.8241ZM2.14567 67.7839H67.8894V2.04018H2.14567V67.7839Z" fill="#E8E8E8"/>
</svg>
