{
  "kind": "collectionType",
  "collectionName": "headers",
  "info": {
    "singularName": "header",
    "pluralName": "headers",
    "displayName": "Header",
    "description": ""
  },
  "options": {
    "draftAndPublish": false
  },
  "pluginOptions": {},
  "attributes": {
    "title": {
      "type": "string",
      "required": true
    },
    "background": {
      "type": "media",
      "multiple": false,
      "required": true,
      "allowedTypes": [
        "images",
        "videos"
      ]
    },
    "page": {
      "type": "uid",
      "required": true
    },
    "seo": {
      "type": "component",
      "repeatable": false,
      "component": "shared.seo"
    }
  }
}
